<?xml version="1.0" encoding="utf-8"?>
<!-- Generator: Adobe Illustrator 25.3.1, SVG Export Plug-In . SVG Version: 6.00 Build 0)  -->
<svg version="1.1" id="Layer_1" xmlns="http://www.w3.org/2000/svg" xmlns:xlink="http://www.w3.org/1999/xlink" x="0px" y="0px"
	 width="98px" height="88px" viewBox="0 0 98 88" style="enable-background:new 0 0 98 88;" xml:space="preserve">
<style type="text/css">
	.st0{fill:#78DEA2;}
	.st1{fill:#FFFFFF;}
</style>
<path class="st0" d="M93.2,72.4c-0.1,0-0.3,0-0.4-0.1c-0.8-0.2-1.3-1.1-1-1.8c2.3-8.1,1.6-16,1.6-16c-0.1-0.8,0.5-1.5,1.4-1.6
	c0.8-0.1,1.5,0.5,1.6,1.4c0,0.3,0.7,8.5-1.7,17.1C94.5,72,93.9,72.4,93.2,72.4z"/>
<path class="st0" d="M3.7,60.1c-0.6,0-1.2-0.4-1.4-0.9c-0.1-0.3-2.5-6.5,1.4-15.4c0.3-0.8,1.2-1.1,2-0.8c0.8,0.3,1.1,1.2,0.8,2
	C3.1,52.6,5.1,58,5.1,58C5.4,58.8,5,59.7,4.2,60C4.1,60,3.9,60.1,3.7,60.1z"/>
<path class="st1" d="M22.8,22.6c-1.3-1.4-3.4-2.2-5.2-2.1c-0.6,0-1.2,0.2-1.8,0.4c-0.2,0.1-0.5,0.2-0.7,0.4c-1.9,1.2-3,3.4-2.9,5.8
	c0.2,3.1,2.8,5.4,6.1,5.5c0.1,0,0.1,0,0.2,0c3.1,0,5.3-2.3,5.8-5.9C24.5,25.2,23.9,23.7,22.8,22.6z"/>
<path class="st1" d="M83.8,23.3c-0.1-1.8-0.9-3.4-2.3-4.5c-1.2-1-2.8-1.4-4.4-1.2c-3.4,0.5-5.8,3.3-5.6,6.5c0.1,1.6,0.8,3.2,2,4.3
	c1.2,1.1,2.6,1.7,4.1,1.7c0.1,0,0.2,0,0.4,0C81.4,29.9,84,26.8,83.8,23.3z"/>
<path class="st0" d="M54.3,19.1c-0.2-3.8-3.7-6.8-7.6-6.5c-4,0.3-7,3.6-6.7,7.4c0.1,1.9,1,3.6,2.4,4.8c1.3,1.1,3,1.7,4.7,1.7
	c0.2,0,0.3,0,0.5,0c1.9-0.1,3.7-1,4.9-2.3C53.8,22.8,54.5,21,54.3,19.1z"/>
<path class="st1" d="M62.8,38.7c1.1-0.8,2.3-1.4,3.5-2c5.5-2.5,11.4-2.4,15.7,0.3c11,6.8,7.1,28.6,5.6,35.1
	c-0.2,0.7-0.8,1.2-1.5,1.2c-0.1,0-0.2,0-0.3,0c-0.8-0.2-1.3-1-1.1-1.8c2.8-12.4,3.1-27.4-4.3-31.9c-3.4-2.1-8.2-2.2-12.9-0.1
	c-1,0.4-1.9,1-2.8,1.5"/>
<path class="st1" d="M12.1,70.7c-0.7,0-1.3-0.5-1.5-1.2C8,58,8.6,48.8,12.4,42.8c2.4-3.7,5.9-6,10.5-6.9c5.4-1.1,10,0.5,13.6,4.6
	c0.6,0.6,0.5,1.6-0.1,2.1c-0.6,0.5-1.6,0.5-2.1-0.1c-3-3.3-6.5-4.5-10.8-3.7c-3.8,0.7-6.7,2.6-8.6,5.6c-3.4,5.2-3.8,13.9-1.4,24.4
	c0.2,0.8-0.3,1.6-1.1,1.8C12.4,70.7,12.2,70.7,12.1,70.7z"/>
<path class="st0" d="M38.6,73.2c-3.3,0-7.3-2.8-8.5-8.2c-3.1-13.4,4-30.3,13.7-33c7.8-2.1,15.6,0.9,20.1,7.6c2.7,4.1,4,9.3,4,15.4
	c-0.1,8.5-1.7,13.9-4.9,16.4c-1.9,1.5-4.2,1.9-7,1.2c-5.5-1.3-5.5-10.4-4.6-15.5c1.1-6.5,4.4-12.5,9.2-16.9c-3.8-4.9-10-7-16-5.3
	c-2.7,0.7-5.3,3-7.4,6.3c6.1,7.1,7.6,19.1,7.4,24.6c-0.1,5-2.9,7.1-5.4,7.4C39,73.2,38.8,73.2,38.6,73.2z M35.6,44
	c-2.8,5.7-4.2,13.3-2.6,20.3c0.9,4,3.7,6.1,5.9,5.9c1.7-0.2,2.7-1.8,2.7-4.5C41.7,60.1,40.2,50.1,35.6,44z M62.3,42.8
	c-4.1,3.9-6.9,9.2-7.9,14.9C53.4,63,54,69.1,56.6,69.8c1.8,0.4,3.3,0.2,4.4-0.7c1.7-1.3,3.7-4.8,3.8-14.1
	C64.9,50.2,64,46.1,62.3,42.8z"/>
</svg>
