<?xml version="1.0" encoding="utf-8"?>
<!-- Generator: Adobe Illustrator 25.3.1, SVG Export Plug-In . SVG Version: 6.00 Build 0)  -->
<svg version="1.1" id="Layer_1" xmlns="http://www.w3.org/2000/svg" xmlns:xlink="http://www.w3.org/1999/xlink" x="0px" y="0px"
	 viewBox="0 0 512 512" style="enable-background:new 0 0 512 512;" xml:space="preserve">
<path d="M359.9,0c16.9,0,33.9,5.6,45.1,22.6c16.9,22.6,16.9,62.1-11.3,79L196.3,253.9l197.5,158c22.6,16.9,28.2,56.4,11.3,79
	c-16.9,22.6-56.4,28.2-79,11.3L72.1,304.7c-11.3-11.3-22.6-28.2-22.6-45.1c0-16.9,5.6-33.9,22.6-45.1L326,16.9
	C331.7,0,348.6,0,359.9,0z"/>
</svg>
